<svg width="510" height="416" viewBox="0 0 510 416" fill="none" xmlns="http://www.w3.org/2000/svg">
<path d="M381.172 294.487L341.45 271.168L310.249 317.601C328.477 332.813 359.1 343.875 374.924 340.497C407.398 333.565 473.021 241.361 482.127 234.342C513.125 210.445 523.201 201.376 484.413 219.945C447.432 237.648 467.019 219.945 457.959 219.945C447.074 220.705 450.681 230.365 454.721 237.288L381.172 294.487Z" fill="url(#paint0_linear_2981_147)"/>
<path d="M155.79 259.162C166.997 251.38 211.279 237.361 230.726 231.325L251.302 233.57C264.266 236.784 292.072 242.263 304.863 247.449C317.654 252.634 340.866 269.171 362.521 282.961L357.408 300.669C352.816 316.572 340.672 329.184 324.955 334.375C320.91 360.097 317.422 401.914 317.998 414.878L167.512 414.761L160.622 351.113L129.634 354.433L103.457 334.375C136.234 277.681 141.782 268.89 155.79 259.162Z" fill="url(#paint1_linear_2981_147)"/>
<path d="M112.739 405.416C65.0583 399.371 96.0694 351.046 104.523 335.086C114.748 343.694 127.374 348.945 140.687 350.128L157.118 351.587L150.39 367.109L223.029 384.114L233.22 412.385C225.961 411.15 172.032 412.934 112.739 405.416Z" fill="url(#paint2_linear_2981_147)"/>
<path d="M235.798 104.451C238.145 100.207 244.875 94.2661 253.022 104.451H235.798Z" fill="#30235B"/>
<ellipse cx="239.71" cy="249.833" rx="25.9725" ry="18.5082" fill="#CF0606"/>
<path d="M218.428 248.839L222.059 212.69H257.404L261.464 248.839C260.045 253.096 253.345 261.732 240.939 261.732C225.126 261.732 219.442 253.096 218.428 248.839Z" fill="url(#paint3_linear_2981_147)"/>
<mask id="mask0_2981_147" style="mask-type:alpha" maskUnits="userSpaceOnUse" x="218" y="212" width="44" height="50">
<path d="M218.428 248.839L222.059 212.69H257.404L261.472 248.912C260.053 253.169 253.33 261.733 240.923 261.733C225.111 261.733 219.442 253.096 218.428 248.839Z" fill="url(#paint4_linear_2981_147)"/>
</mask>
<g mask="url(#mask0_2981_147)">
<path opacity="0.1" d="M270.142 214.073C238.183 253.616 220.324 221.822 211.099 217.052L217.438 190.32L255.28 185.802L270.142 214.073Z" fill="black"/>
</g>
<path d="M239.097 227.202C200.98 227.202 194.425 172.487 206.202 147.461C232.7 115.074 265.824 133.966 279.073 147.461C282.263 168.316 285.78 227.202 239.097 227.202Z" fill="url(#paint5_linear_2981_147)"/>
<path d="M279.724 185.344L272.256 179.842L273.411 175.747L281.941 181.371L279.724 185.344Z" fill="#111111"/>
<path d="M201.919 183.749L209.387 178.247L208.232 174.152L199.702 179.776L201.919 183.749Z" fill="#111111"/>
<path d="M208.752 150.749C235.776 168.356 265.735 158.085 277.336 150.749C274.893 158.453 278.354 173.262 280.389 179.703C297.973 156.804 292.224 144.439 287.152 141.119C286.307 129.707 275.932 101.172 241.103 102.525C206.274 103.878 199.515 128.579 200.502 137.738C187.314 155.659 195.16 173.182 201.52 179.703C208.752 165.663 208.588 155.813 208.752 150.749Z" fill="#30235B"/>
<g filter="url(#filter0_d_2981_147)">
<path d="M243.871 120.146C203.527 118.795 194.541 145.326 193.335 160.733C193.239 161.967 192.23 162.938 190.992 162.938C189.672 162.938 188.62 161.837 188.737 160.522C190.498 140.768 201.03 106.249 243.871 108.629C287.127 111.032 295.589 145.468 294.261 164.664C294.19 165.691 293.323 166.467 292.293 166.467C291.17 166.467 290.269 165.556 290.224 164.434C289.588 148.507 278.999 121.164 243.871 120.146Z" fill="white"/>
</g>
<g filter="url(#filter1_d_2981_147)">
<rect x="295.069" y="172.767" width="5.4757" height="21.0131" rx="2.73785" transform="rotate(10.0542 295.069 172.767)" fill="#24C28A"/>
</g>
<g filter="url(#filter2_d_2981_147)">
<rect x="283.305" y="159.144" width="16.8668" height="43.7733" rx="8.43338" transform="rotate(10.0542 283.305 159.144)" fill="white"/>
</g>
<g filter="url(#filter3_d_2981_147)">
<rect width="5.4757" height="21.0131" rx="2.73785" transform="matrix(-0.984643 0.17458 0.17458 0.984643 186.159 172.767)" fill="#24C28A"/>
</g>
<g filter="url(#filter4_d_2981_147)">
<rect width="16.8668" height="43.7733" rx="8.43338" transform="matrix(-0.984643 0.17458 0.17458 0.984643 197.77 159.144)" fill="white"/>
</g>
<mask id="mask1_2981_147" style="mask-type:alpha" maskUnits="userSpaceOnUse" x="182" y="160" width="23" height="44">
<rect width="16.8668" height="43.7733" rx="8.43338" transform="matrix(-0.984643 0.17458 0.17458 0.984643 197.77 159.144)" fill="white"/>
</mask>
<g mask="url(#mask1_2981_147)">
<rect x="189.828" y="159.144" width="21.9399" height="47.5168" transform="rotate(-10.0977 189.828 159.144)" fill="#E8E8E8"/>
</g>
<mask id="mask2_2981_147" style="mask-type:alpha" maskUnits="userSpaceOnUse" x="277" y="160" width="22" height="44">
<rect x="283.305" y="159.144" width="16.8668" height="43.7733" rx="8.43338" transform="rotate(10.0542 283.305 159.144)" fill="white"/>
</mask>
<g mask="url(#mask2_2981_147)">
<rect width="21.9399" height="47.5168" transform="matrix(-0.98451 -0.175326 -0.175326 0.98451 292.271 159.144)" fill="#E8E8E8"/>
</g>
<path opacity="0.5" d="M222.672 191.735C217.279 191.735 214.564 187.485 213.874 185.588C213.08 184 212.454 179.865 214.333 176.581C216.722 172.405 227.951 171.24 231.885 177.14C235.818 183.04 231.885 191.735 222.672 191.735Z" fill="#E6FCFF"/>
<path opacity="0.5" d="M258.403 191.735C263.796 191.735 266.511 187.485 267.201 185.588C267.995 184 268.622 179.865 266.743 176.581C264.353 172.405 253.124 171.24 249.191 177.14C245.257 183.04 249.191 191.735 258.403 191.735Z" fill="#E6FCFF"/>
<path fill-rule="evenodd" clip-rule="evenodd" d="M234.67 175.838C225.876 168.115 217.932 171.383 213.225 173.319C212.702 173.534 212.218 173.733 211.778 173.898L208.831 173.904C208.276 173.905 207.828 174.358 207.833 174.913L207.855 177.39C207.86 177.939 208.306 178.382 208.855 178.382L210.986 178.382C209.442 191.632 219.214 195.178 227.029 192.79C233.997 190.661 235.862 184.635 236.235 180.856C237.725 177.553 244.26 179.079 244.518 180.782C244.524 180.822 244.531 180.866 244.538 180.916L244.538 180.916C244.845 182.99 246.39 193.438 258.153 193.453C267.788 193.465 270.401 184.857 270.504 180.552L272.998 180.53C273.55 180.525 273.994 180.073 273.989 179.521L273.962 176.49C273.957 175.938 273.505 175.494 272.953 175.499L270.459 175.521C264.183 169.163 250.701 169.758 245.952 175.738C240.713 174.53 236.248 175.301 234.67 175.838ZM222.672 191.735C217.28 191.735 214.564 187.485 213.874 185.587C213.081 184 212.454 179.865 214.333 176.581C216.722 172.405 227.951 171.24 231.885 177.14C235.818 183.04 231.885 191.735 222.672 191.735ZM267.202 185.587C266.512 187.485 263.797 191.735 258.404 191.735C249.192 191.735 245.259 183.04 249.192 177.14C253.125 171.24 264.355 172.405 266.744 176.581C268.623 179.865 267.996 184 267.202 185.587Z" fill="#111111"/>
<path d="M164.324 409.515C164.324 408.96 164.774 408.51 165.329 408.51H319.721C320.692 408.51 321.479 409.298 321.479 410.269C321.479 413.181 319.117 415.543 316.205 415.543H170.352C167.023 415.543 164.324 412.844 164.324 409.515Z" fill="#B4B4B4"/>
<rect x="164.324" y="305.975" width="157.155" height="105.147" rx="2.94666" fill="url(#paint6_linear_2981_147)"/>
<circle cx="242.901" cy="358.549" r="11.1765" fill="white"/>
<path fill-rule="evenodd" clip-rule="evenodd" d="M131.238 170.703C131.437 167.294 132.117 164.441 132.684 162.855C133.796 165.637 134.346 168.307 134.532 170.743C136.968 170.929 139.639 171.479 142.42 172.592C140.834 173.158 137.981 173.838 134.572 174.037C134.382 177.656 133.452 180.468 132.684 181.908C131.749 179.291 131.322 176.599 131.211 174.064C128.676 173.953 125.984 173.526 123.367 172.592C124.808 171.824 127.619 170.893 131.238 170.703Z" fill="url(#paint7_linear_2981_147)"/>
<path fill-rule="evenodd" clip-rule="evenodd" d="M104.35 148.276C104.483 146.007 104.935 144.108 105.313 143.052C106.053 144.904 106.419 146.682 106.543 148.303C108.164 148.427 109.942 148.793 111.794 149.533C110.738 149.911 108.839 150.363 106.57 150.496C106.443 152.904 105.824 154.776 105.313 155.735C104.69 153.993 104.407 152.201 104.333 150.514C102.645 150.439 100.853 150.156 99.1114 149.533C100.07 149.022 101.942 148.403 104.35 148.276Z" fill="url(#paint8_linear_2981_147)"/>
<path fill-rule="evenodd" clip-rule="evenodd" d="M61.0273 132.299C61.2267 128.89 61.9063 126.036 62.4727 124.45C63.5854 127.232 64.1355 129.903 64.3214 132.339C66.757 132.525 69.4278 133.075 72.2096 134.187C70.6236 134.754 67.7702 135.433 64.3615 135.633C64.1714 139.252 63.2408 142.063 62.4727 143.503C61.5381 140.887 61.1116 138.195 61.0004 135.66C58.4652 135.549 55.7734 135.122 53.1566 134.187C54.5967 133.419 57.4085 132.489 61.0273 132.299Z" fill="url(#paint9_linear_2981_147)"/>
<path fill-rule="evenodd" clip-rule="evenodd" d="M64.7363 210.639C65.0295 205.624 66.0293 201.426 66.8627 199.093C68.4998 203.186 69.3091 207.115 69.5826 210.698C73.1659 210.972 77.0953 211.781 81.188 213.418C78.8546 214.252 74.6566 215.251 69.6416 215.545C69.3619 220.869 67.9927 225.005 66.8627 227.124C65.4877 223.274 64.8603 219.314 64.6966 215.584C60.9667 215.421 57.0065 214.793 53.1565 213.418C55.2753 212.288 59.412 210.919 64.7363 210.639Z" fill="url(#paint10_linear_2981_147)"/>
<circle cx="95.2053" cy="180.985" r="1.8414" fill="#2F235A"/>
<circle cx="137.463" cy="128.187" r="1.8414" fill="#FE9076"/>
<circle cx="44.8435" cy="173.674" r="1.8414" fill="#FFA400"/>
<circle cx="127.37" cy="209.385" r="1.8414" fill="#23BB86"/>
<path d="M132.951 120.502C128.788 114.784 117.061 102.572 103.457 99.4622" stroke="#FE9076" stroke-width="1.60277" stroke-linecap="round"/>
<path d="M37.074 168.739C30.9208 165.251 15.1962 158.973 1.52289 161.76" stroke="#FFA400" stroke-width="1.60277" stroke-linecap="round"/>
<path d="M121.05 214.734C117.897 217.516 110.311 225.417 105.192 234.765" stroke="#23BB86" stroke-width="1.60277" stroke-linecap="round"/>
<path fill-rule="evenodd" clip-rule="evenodd" d="M348.588 170.703C348.388 167.294 347.709 164.441 347.142 162.855C346.03 165.637 345.48 168.307 345.294 170.743C342.858 170.929 340.187 171.479 337.406 172.592C338.992 173.158 341.845 173.838 345.254 174.037C345.444 177.656 346.374 180.468 347.142 181.908C348.077 179.291 348.503 176.599 348.615 174.064C351.15 173.953 353.842 173.526 356.459 172.592C355.018 171.824 352.207 170.893 348.588 170.703Z" fill="url(#paint11_linear_2981_147)"/>
<path fill-rule="evenodd" clip-rule="evenodd" d="M375.475 148.276C375.343 146.007 374.89 144.108 374.513 143.052C373.773 144.904 373.407 146.682 373.283 148.303C371.662 148.427 369.884 148.793 368.032 149.533C369.088 149.911 370.987 150.363 373.256 150.496C373.383 152.904 374.002 154.776 374.513 155.735C375.135 153.993 375.419 152.201 375.493 150.514C377.181 150.439 378.973 150.156 380.715 149.533C379.756 149.022 377.884 148.403 375.475 148.276Z" fill="url(#paint12_linear_2981_147)"/>
<path fill-rule="evenodd" clip-rule="evenodd" d="M418.799 132.299C418.599 128.89 417.92 126.036 417.353 124.45C416.24 127.232 415.69 129.903 415.505 132.339C413.069 132.525 410.398 133.075 407.616 134.187C409.202 134.754 412.056 135.433 415.464 135.633C415.655 139.252 416.585 142.063 417.353 143.503C418.288 140.887 418.714 138.195 418.826 135.66C421.361 135.549 424.053 135.122 426.669 134.187C425.229 133.419 422.417 132.489 418.799 132.299Z" fill="url(#paint13_linear_2981_147)"/>
<path fill-rule="evenodd" clip-rule="evenodd" d="M415.09 210.639C414.796 205.624 413.797 201.426 412.963 199.093C411.326 203.186 410.517 207.115 410.243 210.698C406.66 210.972 402.731 211.781 398.638 213.418C400.971 214.252 405.169 215.251 410.184 215.545C410.464 220.869 411.833 225.005 412.963 227.124C414.338 223.274 414.966 219.314 415.129 215.584C418.859 215.421 422.819 214.793 426.669 213.418C424.551 212.288 420.414 210.919 415.09 210.639Z" fill="url(#paint14_linear_2981_147)"/>
<circle cx="1.8414" cy="1.8414" r="1.8414" transform="matrix(-1 0 0 1 386.462 179.143)" fill="#2F235A"/>
<circle cx="1.8414" cy="1.8414" r="1.8414" transform="matrix(-1 0 0 1 344.204 126.346)" fill="#FE9076"/>
<circle cx="1.8414" cy="1.8414" r="1.8414" transform="matrix(-1 0 0 1 436.824 171.833)" fill="#FFA400"/>
<circle cx="1.8414" cy="1.8414" r="1.8414" transform="matrix(-1 0 0 1 354.298 207.544)" fill="#23BB86"/>
<path d="M346.875 120.502C351.038 114.784 362.765 102.572 376.369 99.4622" stroke="#FE9076" stroke-width="1.60277" stroke-linecap="round"/>
<path d="M442.752 168.739C448.905 165.251 464.63 158.973 478.303 161.76" stroke="#FFA400" stroke-width="1.60277" stroke-linecap="round"/>
<path d="M358.776 214.734C361.929 217.516 369.515 225.417 374.634 234.765" stroke="#23BB86" stroke-width="1.60277" stroke-linecap="round"/>
<path d="M269.949 57.0013C267.861 53.7759 263.635 55.533 263.635 59.0465C263.635 61.6849 269.429 65.812 269.949 66.3486C270.473 65.812 275.979 61.6849 275.979 59.0465C275.979 55.5597 272.041 53.7759 269.949 57.0013Z" fill="#FFBCBC"/>
<circle cx="269.807" cy="60.8264" r="13.7999" stroke="#F7F7F7" stroke-width="0.649684"/>
<path d="M220.426 37.7681C218.578 34.9135 214.838 36.4686 214.838 39.5782C214.838 41.9133 219.965 45.5659 220.426 46.0409C220.89 45.5659 225.763 41.9133 225.763 39.5782C225.763 36.4922 222.278 34.9135 220.426 37.7681Z" fill="#FFBCBC"/>
<circle cx="220.3" cy="41.1533" r="12.2135" stroke="#F7F7F7" stroke-width="0.574998"/>
<path d="M253.109 16.793C251.845 14.8407 249.286 15.9043 249.286 18.031C249.286 19.6281 252.794 22.1262 253.109 22.4511C253.426 22.1262 256.758 19.6281 256.758 18.031C256.758 15.9204 254.375 14.8407 253.109 16.793Z" fill="#FFBCBC"/>
<circle cx="253.022" cy="19.1084" r="8.35318" stroke="#F7F7F7" stroke-width="0.393259"/>
<path d="M195.379 5.92905C194.345 4.33158 192.251 5.20183 192.251 6.94201C192.251 8.24876 195.121 10.2929 195.379 10.5587C195.638 10.2929 198.365 8.24876 198.365 6.94201C198.365 5.21502 196.415 4.33158 195.379 5.92905Z" fill="#FFBCBC"/>
<circle cx="195.308" cy="7.82341" r="6.83488" stroke="#F7F7F7" stroke-width="0.321779"/>
<path d="M190.292 80.8149C188.034 77.3272 183.464 79.2272 183.464 83.0265C183.464 85.8796 189.729 90.3425 190.292 90.9228C190.859 90.3425 196.812 85.8796 196.812 83.0265C196.812 79.256 192.554 77.3272 190.292 80.8149Z" fill="#FFBCBC"/>
<circle cx="190.138" cy="84.9511" r="14.9226" stroke="#F7F7F7" stroke-width="0.702541"/>
<defs>
<filter id="filter0_d_2981_147" x="154.729" y="78.5125" width="173.661" height="125.955" filterUnits="userSpaceOnUse" color-interpolation-filters="sRGB">
<feFlood flood-opacity="0" result="BackgroundImageFix"/>
<feColorMatrix in="SourceAlpha" type="matrix" values="0 0 0 0 0 0 0 0 0 0 0 0 0 0 0 0 0 0 127 0" result="hardAlpha"/>
<feOffset dy="4"/>
<feGaussianBlur stdDeviation="17"/>
<feColorMatrix type="matrix" values="0 0 0 0 0.0386285 0 0 0 0 0.0648437 0 0 0 0 0.104167 0 0 0 0.13 0"/>
<feBlend mode="normal" in2="BackgroundImageFix" result="effect1_dropShadow_2981_147"/>
<feBlend mode="normal" in="SourceGraphic" in2="effect1_dropShadow_2981_147" result="shape"/>
</filter>
<filter id="filter1_d_2981_147" x="257.836" y="143.202" width="76.1892" height="88.7754" filterUnits="userSpaceOnUse" color-interpolation-filters="sRGB">
<feFlood flood-opacity="0" result="BackgroundImageFix"/>
<feColorMatrix in="SourceAlpha" type="matrix" values="0 0 0 0 0 0 0 0 0 0 0 0 0 0 0 0 0 0 127 0" result="hardAlpha"/>
<feOffset dy="4"/>
<feGaussianBlur stdDeviation="17"/>
<feColorMatrix type="matrix" values="0 0 0 0 0.0386285 0 0 0 0 0.0648437 0 0 0 0 0.104167 0 0 0 0.13 0"/>
<feBlend mode="normal" in2="BackgroundImageFix" result="effect1_dropShadow_2981_147"/>
<feBlend mode="normal" in="SourceGraphic" in2="effect1_dropShadow_2981_147" result="shape"/>
</filter>
<filter id="filter2_d_2981_147" x="243.005" y="130.485" width="89.5669" height="111.363" filterUnits="userSpaceOnUse" color-interpolation-filters="sRGB">
<feFlood flood-opacity="0" result="BackgroundImageFix"/>
<feColorMatrix in="SourceAlpha" type="matrix" values="0 0 0 0 0 0 0 0 0 0 0 0 0 0 0 0 0 0 127 0" result="hardAlpha"/>
<feOffset dy="4"/>
<feGaussianBlur stdDeviation="17"/>
<feColorMatrix type="matrix" values="0 0 0 0 0.0386285 0 0 0 0 0.0648437 0 0 0 0 0.104167 0 0 0 0.13 0"/>
<feBlend mode="normal" in2="BackgroundImageFix" result="effect1_dropShadow_2981_147"/>
<feBlend mode="normal" in="SourceGraphic" in2="effect1_dropShadow_2981_147" result="shape"/>
</filter>
<filter id="filter3_d_2981_147" x="147.203" y="143.202" width="76.1892" height="88.7754" filterUnits="userSpaceOnUse" color-interpolation-filters="sRGB">
<feFlood flood-opacity="0" result="BackgroundImageFix"/>
<feColorMatrix in="SourceAlpha" type="matrix" values="0 0 0 0 0 0 0 0 0 0 0 0 0 0 0 0 0 0 127 0" result="hardAlpha"/>
<feOffset dy="4"/>
<feGaussianBlur stdDeviation="17"/>
<feColorMatrix type="matrix" values="0 0 0 0 0.0386285 0 0 0 0 0.0648437 0 0 0 0 0.104167 0 0 0 0.13 0"/>
<feBlend mode="normal" in2="BackgroundImageFix" result="effect1_dropShadow_2981_147"/>
<feBlend mode="normal" in="SourceGraphic" in2="effect1_dropShadow_2981_147" result="shape"/>
</filter>
<filter id="filter4_d_2981_147" x="148.504" y="130.485" width="89.5669" height="111.363" filterUnits="userSpaceOnUse" color-interpolation-filters="sRGB">
<feFlood flood-opacity="0" result="BackgroundImageFix"/>
<feColorMatrix in="SourceAlpha" type="matrix" values="0 0 0 0 0 0 0 0 0 0 0 0 0 0 0 0 0 0 127 0" result="hardAlpha"/>
<feOffset dy="4"/>
<feGaussianBlur stdDeviation="17"/>
<feColorMatrix type="matrix" values="0 0 0 0 0.0386285 0 0 0 0 0.0648437 0 0 0 0 0.104167 0 0 0 0.13 0"/>
<feBlend mode="normal" in2="BackgroundImageFix" result="effect1_dropShadow_2981_147"/>
<feBlend mode="normal" in="SourceGraphic" in2="effect1_dropShadow_2981_147" result="shape"/>
</filter>
<linearGradient id="paint0_linear_2981_147" x1="391.304" y1="159.149" x2="393.951" y2="335.017" gradientUnits="userSpaceOnUse">
<stop stop-color="#FFEFE0"/>
<stop offset="1" stop-color="#FFBE99"/>
</linearGradient>
<linearGradient id="paint1_linear_2981_147" x1="242.798" y1="201.036" x2="230.398" y2="449.373" gradientUnits="userSpaceOnUse">
<stop stop-color="#FF9F81"/>
<stop offset="1" stop-color="#F53838"/>
</linearGradient>
<linearGradient id="paint2_linear_2981_147" x1="227.733" y1="288.311" x2="109.061" y2="345.186" gradientUnits="userSpaceOnUse">
<stop offset="0.0677966" stop-color="#FFEFE0"/>
<stop offset="1" stop-color="#FFBE99"/>
</linearGradient>
<linearGradient id="paint3_linear_2981_147" x1="238.727" y1="173.803" x2="240.807" y2="240.189" gradientUnits="userSpaceOnUse">
<stop stop-color="#FFEFE0"/>
<stop offset="1" stop-color="#FFBE99"/>
</linearGradient>
<linearGradient id="paint4_linear_2981_147" x1="238.727" y1="173.803" x2="235.813" y2="249.433" gradientUnits="userSpaceOnUse">
<stop stop-color="#FFEFE0"/>
<stop offset="1" stop-color="#FFBE99"/>
</linearGradient>
<linearGradient id="paint5_linear_2981_147" x1="242.184" y1="138.411" x2="242.184" y2="218.13" gradientUnits="userSpaceOnUse">
<stop stop-color="#FFEFE0"/>
<stop offset="1" stop-color="#FFBE99"/>
</linearGradient>
<linearGradient id="paint6_linear_2981_147" x1="275.352" y1="227.062" x2="217.247" y2="435.556" gradientUnits="userSpaceOnUse">
<stop offset="0.0171777" stop-color="white"/>
<stop offset="1" stop-color="#D7D7D7"/>
</linearGradient>
<linearGradient id="paint7_linear_2981_147" x1="132.894" y1="164.883" x2="132.894" y2="182.772" gradientUnits="userSpaceOnUse">
<stop stop-color="#FFE89E"/>
<stop offset="1" stop-color="#FFBF1A"/>
</linearGradient>
<linearGradient id="paint8_linear_2981_147" x1="105.453" y1="144.402" x2="105.453" y2="156.31" gradientUnits="userSpaceOnUse">
<stop stop-color="#FFE89E"/>
<stop offset="1" stop-color="#FFBF1A"/>
</linearGradient>
<linearGradient id="paint9_linear_2981_147" x1="62.6831" y1="126.478" x2="62.6831" y2="144.368" gradientUnits="userSpaceOnUse">
<stop stop-color="#FFE89E"/>
<stop offset="1" stop-color="#FFBF1A"/>
</linearGradient>
<linearGradient id="paint10_linear_2981_147" x1="67.1722" y1="202.076" x2="67.1722" y2="228.396" gradientUnits="userSpaceOnUse">
<stop stop-color="#FFE89E"/>
<stop offset="1" stop-color="#FFBF1A"/>
</linearGradient>
<linearGradient id="paint11_linear_2981_147" x1="346.932" y1="164.883" x2="346.932" y2="182.772" gradientUnits="userSpaceOnUse">
<stop stop-color="#FFE89E"/>
<stop offset="1" stop-color="#FFBF1A"/>
</linearGradient>
<linearGradient id="paint12_linear_2981_147" x1="374.373" y1="144.402" x2="374.373" y2="156.31" gradientUnits="userSpaceOnUse">
<stop stop-color="#FFE89E"/>
<stop offset="1" stop-color="#FFBF1A"/>
</linearGradient>
<linearGradient id="paint13_linear_2981_147" x1="417.143" y1="126.478" x2="417.143" y2="144.368" gradientUnits="userSpaceOnUse">
<stop stop-color="#FFE89E"/>
<stop offset="1" stop-color="#FFBF1A"/>
</linearGradient>
<linearGradient id="paint14_linear_2981_147" x1="412.654" y1="202.076" x2="412.654" y2="228.396" gradientUnits="userSpaceOnUse">
<stop stop-color="#FFE89E"/>
<stop offset="1" stop-color="#FFBF1A"/>
</linearGradient>
</defs>
</svg>
